Lab 4
…
#Analyze player progress between 2018 and 2019

defComb <- inner_join(defClean, defClean18, by ='Name') %>% mutate(Diff_Tackles_Solo = Tackles_Solo.x - Tackles_Solo.y) %>% select(Name, Diff_Tackles_Solo) %>% arrange(desc(Diff_Tackles_Solo))

defComb

## # A tibble: 3,264 x 2
##    Name              Diff_Tackles_Solo
##    <fct>                         <dbl>
##  1 Lewis, Braxton                    9
##  2 Lewis, Braxton                    9
##  3 Lewis, Braxton                    8
##  4 Lewis, Braxton                    7
##  5 Lewis, Braxton                    7
##  6 Lewis, Braxton                    7
##  7 Lewis, Braxton                    7
##  8 Lewis, Braxton                    7
##  9 Johnson , Anthony                 7
## 10 Johnson , Anthony                 7
## # ... with 3,254 more rows
…
The two plyers on the defense roster that made improvements were Braxton Lewis and Anthony Johnson.

offComb <- inner_join(offClean, offClean18, by ='Name') %>% mutate(Diff_Receiving_YDS = Receiving_YDS.x - Receiving_YDS.y) %>% select(Name, Diff_Receiving_YDS) %>% arrange(desc(Diff_Receiving_YDS))

offComb

## # A tibble: 1,223 x 2
##    Name             Diff_Receiving_YDS
##    <fct>                         <dbl>
##  1 Jones, Deshaunte                144
##  2 Milton, Tarique                 144
##  3 Milton, Tarique                 144
##  4 Milton, Tarique                 142
##  5 Milton, Tarique                 142
##  6 Milton, Tarique                 141
##  7 Jones, Deshaunte                140
##  8 Milton, Tarique                 139
##  9 Jones, Deshaunte                138
## 10 Milton, Tarique                 130
## # ... with 1,213 more rows
…
